{
    "react-native": {
      "crashlytics_auto_collection_enabled": false,
      "crashlytics_debug_enabled": true,
      "crashlytics_ndk_enabled": false,
      "crashlytics_is_error_generation_on_js_crash_enabled": false,
      "crashlytics_javascript_exception_handler_chaining_enabled": false,
      "analytics_auto_collection_enabled": true,
      "messaging_auto_init_enabled": false
    }
  }