{
  "project_info": {
    "project_number": "604610131645",
    "project_id": "rnmedia-8fff4",
    "storage_bucket": "rnmedia-8fff4.appspot.com"
  },
  "client": [
    {
      "client_info": {
        "mobilesdk_app_id": "1:604610131645:android:2f11cfd07b2539bcf729d4",
        "android_client_info": {
          "package_name": "com.rnmedia"
        }
      },
      "oauth_client": [
        {
          "client_id": "604610131645-ia06b7l9a8v4docl1jdbcb9iphgm8jep.apps.googleusercontent.com",
          "client_type": 3
        }
      ],
      "api_key": [
        {
          "current_key": "AIzaSyCgeQRAbc28gBLObNjkBGbC38lBkg4dr28"
        }
      ],
      "services": {
        "appinvite_service": {
          "other_platform_oauth_client": [
            {
              "client_id": "604610131645-ia06b7l9a8v4docl1jdbcb9iphgm8jep.apps.googleusercontent.com",
              "client_type": 3
            },
            {
              "client_id": "604610131645-3uenm641t030b8i9lsoi6fhh4h94ujp2.apps.googleusercontent.com",
              "client_type": 2,
              "ios_info": {
                "bundle_id": "com.rnmedia"
              }
            }
          ]
        }
      }
    },
    {
      "client_info": {
        "mobilesdk_app_id": "1:604610131645:android:f8a3bfb8cf94292af729d4",
        "android_client_info": {
          "package_name": "com.training.rnmedia"
        }
      },
      "oauth_client": [
        {
          "client_id": "604610131645-k4ls2cd1srdftdbbhcaqlf78318dideh.apps.googleusercontent.com",
          "client_type": 1,
          "android_info": {
            "package_name": "com.training.rnmedia",
            "certificate_hash": "5e8f16062ea3cd2c4a0d547876baa6f38cabf625"
          }
        },
        {
          "client_id": "604610131645-ia06b7l9a8v4docl1jdbcb9iphgm8jep.apps.googleusercontent.com",
          "client_type": 3
        }
      ],
      "api_key": [
        {
          "current_key": "AIzaSyCgeQRAbc28gBLObNjkBGbC38lBkg4dr28"
        }
      ],
      "services": {
        "appinvite_service": {
          "other_platform_oauth_client": [
            {
              "client_id": "604610131645-ia06b7l9a8v4docl1jdbcb9iphgm8jep.apps.googleusercontent.com",
              "client_type": 3
            },
            {
              "client_id": "604610131645-3uenm641t030b8i9lsoi6fhh4h94ujp2.apps.googleusercontent.com",
              "client_type": 2,
              "ios_info": {
                "bundle_id": "com.rnmedia"
              }
            }
          ]
        }
      }
    }
  ],
  "configuration_version": "1"
}